Faktor Seseorang Berbelanja Online
…
dfTree <- df[c(1, 2, 3, 4, 5, 6, 8, 9,11)]
dfTree$Status<-as.factor(dfTree$Status)
dfTree$JenisKelamin<-as.factor(dfTree$JenisKelamin)
dfTree$KemungkinanBelanja<-as.factor(dfTree$KemungkinanBelanja)
dfTree

## # A tibble: 180 x 9
##    JenisKelamin Status   Usia Pendapatan Pengeluaran SeringnyaBelanja~ RatingMin
##    <fct>        <fct>   <dbl>      <dbl>       <dbl>             <dbl>     <dbl>
##  1 Laki - Laki  Pelajar    19     500000      350000                 1         3
##  2 Laki - Laki  Pelajar    19    1000000      500000                 1         5
##  3 Perempuan    Pelajar    19    3000000     2500000                 3         4
##  4 Laki - Laki  Pelajar    18   10000000     7000000                 7         5
##  5 Perempuan    Pelajar    20    1500000     1000000                 3         4
##  6 Perempuan    Pelajar    19    2000000      900000                 1         4
##  7 Perempuan    Pelajar    20     500000      500000                 6         4
##  8 Perempuan    Pelajar    19     300000      150000                 2         4
##  9 Perempuan    Pelajar    18    1500000      700000                 3         4
## 10 Perempuan    Pelajar    22    3000000     2000000                 2         4
## # ... with 170 more rows, and 2 more variables: WaktuDelivery <dbl>,
## #   KemungkinanBelanja <fct>
…
